{
  "data": [ /* …the first 20 books (the default page)… */ ],
  "total":        100,   // how many books exist in total
  "currentPage":  1,     // which page this is (default = 1)
  "limit":        20,    // page size (default limit)
  "totalPages":   5      // 100 / 20 = 5 pages
}
